{"hasMore": true, "items": [{"id": 95055, "crashType": "Use-of-uninitialized-value", "crashStateLines": ["mem_puts", "BIO_puts", "PEM_read_bio_ex"], "jobType": "libssh_libfuzzer_msan", "isClosed": false, "isFixed": "", "isReproducible": true, "isSecurity": true, "isImpactSet": false, "impacts": {"extendedStable": null, "stable": null, "beta": null, "head": null}, "regressionRange": "", "fixedRange": "", "groupId": 0, "projectName": "test-project", "platform": "linux", "issueId": 0, "showImpacts": false, "impactsProduction": false, "timestamp": 1638457101.261863}, {"id": 95054, "crashType": "Undefined-shift", "crashStateLines": ["git_midx_parse", "midx_fuzzer.c"], "jobType": "libgit2_libfuzzer_ubsan", "isClosed": false, "isFixed": "", "isReproducible": true, "isSecurity": false, "isImpactSet": false, "impacts": {"extendedStable": null, "stable": null, "beta": null, "head": null}, "regressionRange": "", "fixedRange": "", "groupId": 0, "projectName": "test-project", "platform": "linux", "issueId": 0, "showImpacts": false, "impactsProduction": false, "timestamp": 1638457069.674038}, {"id": 95005, "crashType": "Heap-buffer-overflow READ {*}", "crashStateLines": ["jxl::ModularFrameDecoder::DecodeGroup", "jxl::FrameDecoder::ProcessACGroup", "jxl::ThreadPool::RunCallState<jxl::FrameDecoder::ProcessSections"], "jobType": "libvips_libfuzzer_asan", "isClosed": false, "isFixed": "", "isReproducible": true, "isSecurity": true, "isImpactSet": false, "impacts": {"extendedStable": null, "stable": null, "beta": null, "head": null}, "regressionRange": "", "fixedRange": "", "groupId": 0, "projectName": "test-project", "platform": "linux", "issueId": 0, "showImpacts": false, "impactsProduction": false, "timestamp": 1638455571.446845}, {"id": 94978, "crashType": "Stack-overflow", "crashStateLines": ["_outNode", "_outAExpr"], "jobType": "libpg_query_libfuzzer_asan", "isClosed": false, "isFixed": "", "isReproducible": true, "isSecurity": false, "isImpactSet": false, "impacts": {"extendedStable": null, "stable": null, "beta": null, "head": null}, "regressionRange": "", "fixedRange": "", "groupId": 0, "projectName": "test-project", "platform": "linux", "issueId": 0, "showImpacts": false, "impactsProduction": false, "timestamp": 1638454060.863177}, {"id": 93834, "crashType": "Out-of-memory", "crashStateLines": ["animdecoder_fuzzer"], "jobType": "libwebp_libfuzzer_msan", "isClosed": false, "isFixed": "", "isReproducible": true, "isSecurity": false, "isImpactSet": false, "impacts": {"extendedStable": null, "stable": null, "beta": null, "head": null}, "regressionRange": "", "fixedRange": "", "groupId": 0, "projectName": "test-project", "platform": "linux", "issueId": 0, "showImpacts": false, "impactsProduction": false, "timestamp": 1638451740.837851}, {"id": 93813, "crashType": "Timeout", "crashStateLines": ["hevc_dec_fuzzer"], "jobType": "libhevc_libfuzzer_msan", "isClosed": false, "isFixed": "", "isReproducible": true, "isSecurity": false, "isImpactSet": false, "impacts": {"extendedStable": null, "stable": null, "beta": null, "head": null}, "regressionRange": "", "fixedRange": "", "groupId": 0, "projectName": "test-project", "platform": "linux", "issueId": 0, "showImpacts": false, "impactsProduction": false, "timestamp": 1638451365.408862}, {"id": 89583, "crashType": "Use-of-uninitialized-value", "crashStateLines": ["LibRaw::kodak_radc_load_raw", "LibRaw::unpack", "libraw_fuzzer.cc"], "jobType": "libraw_honggfuzz_msan", "isClosed": false, "isFixed": "", "isReproducible": true, "isSecurity": true, "isImpactSet": null, "impacts": {"extendedStable": null, "stable": null, "beta": null, "head": null}, "regressionRange": "", "fixedRange": "", "groupId": 0, "projectName": "test-project", "platform": "linux", "issueId": 0, "showImpacts": false, "impactsProduction": false, "timestamp": 1638448637.549759}, {"id": 89561, "crashType": "Direct-leak", "crashStateLines": ["data_context_fuzzer.cc"], "jobType": "libsass_libfuzzer_asan", "isClosed": false, "isFixed": "", "isReproducible": true, "isSecurity": false, "isImpactSet": false, "impacts": {"extendedStable": null, "stable": null, "beta": null, "head": null}, "regressionRange": "", "fixedRange": "", "groupId": 0, "projectName": "test-project", "platform": "linux", "issueId": 0, "showImpacts": false, "impactsProduction": false, "timestamp": 1638448567.995019}, {"id": 89552, "crashType": "Timeout", "crashStateLines": ["fuzzKeystore"], "jobType": "go-ethereum_libfuzzer_asan", "isClosed": false, "isFixed": false, "isReproducible": false, "isSecurity": false, "isImpactSet": null, "impacts": {"extendedStable": null, "stable": null, "beta": null, "head": null}, "regressionRange": "", "fixedRange": "", "groupId": 0, "projectName": "test-project", "platform": "linux", "issueId": 0, "showImpacts": false, "impactsProduction": false, "timestamp": 1638447874.187481}, {"id": 89549, "crashType": "Null-dereference READ", "crashStateLines": ["pthread_create", "_cgo_try_pthread_create", "pthread_create"], "jobType": "go-ethereum_libfuzzer_asan", "isClosed": false, "isFixed": false, "isReproducible": false, "isSecurity": true, "isImpactSet": null, "impacts": {"extendedStable": null, "stable": null, "beta": null, "head": null}, "regressionRange": "", "fixedRange": "", "groupId": 0, "projectName": "test-project", "platform": "linux", "issueId": 0, "showImpacts": false, "impactsProduction": false, "timestamp": 1638447505.193738}, {"id": 89530, "crashType": "Use-of-uninitialized-value", "crashStateLines": ["yaml_emitter_write_indent", "yaml_emitter_emit_flow_sequence_item", "yaml_emitter_state_machine"], "jobType": "libyaml_afl_msan", "isClosed": false, "isFixed": "", "isReproducible": true, "isSecurity": true, "isImpactSet": null, "impacts": {"extendedStable": null, "stable": null, "beta": null, "head": null}, "regressionRange": "", "fixedRange": "", "groupId": 59160, "projectName": "test-project", "platform": "linux", "issueId": 0, "showImpacts": false, "impactsProduction": false, "timestamp": 1638447111.553164}, {"id": 89499, "crashType": "Timeout", "crashStateLines": ["fuzz_asm_sparcbe"], "jobType": "keystone_libfuzzer_asan", "isClosed": false, "isFixed": "", "isReproducible": true, "isSecurity": false, "isImpactSet": null, "impacts": {"extendedStable": null, "stable": null, "beta": null, "head": null}, "regressionRange": "", "fixedRange": "", "groupId": 0, "projectName": "test-project", "platform": "linux", "issueId": 0, "showImpacts": false, "impactsProduction": false, "timestamp": 1638446494.284073}, {"id": 88526, "crashType": "Abrt", "crashStateLines": ["date_Increment", "PacketizeBlock", "Parse"], "jobType": "vlc_honggfuzz_asan", "isClosed": false, "isFixed": false, "isReproducible": false, "isSecurity": false, "isImpactSet": null, "impacts": {"extendedStable": null, "stable": null, "beta": null, "head": null}, "regressionRange": "", "fixedRange": "", "groupId": 0, "projectName": "test-project", "platform": "linux", "issueId": 0, "showImpacts": false, "impactsProduction": false, "timestamp": 1638442439.163378}, {"id": 88462, "crashType": "Out-of-memory", "crashStateLines": ["fuzzshark_ip"], "jobType": "wireshark_libfuzzer_asan", "isClosed": false, "isFixed": false, "isReproducible": false, "isSecurity": false, "isImpactSet": null, "impacts": {"extendedStable": null, "stable": null, "beta": null, "head": null}, "regressionRange": "", "fixedRange": "", "groupId": 0, "projectName": "test-project", "platform": "linux", "issueId": 0, "showImpacts": false, "impactsProduction": false, "timestamp": 1638439440.150023}, {"id": 87918, "crashType": "Out-of-memory", "crashStateLines": ["parse_fuzz_test"], "jobType": "duckdb_libfuzzer_asan", "isClosed": false, "isFixed": "", "isReproducible": true, "isSecurity": false, "isImpactSet": false, "impacts": {"extendedStable": null, "stable": null, "beta": null, "head": null}, "regressionRange": "", "fixedRange": "", "groupId": 0, "projectName": "test-project", "platform": "linux", "issueId": 0, "showImpacts": false, "impactsProduction": false, "timestamp": 1638438993.992919}, {"id": 85643, "crashType": "Use-of-uninitialized-value", "crashStateLines": ["std::__1::basic_string<char, std::__1::char_traits<char>, std::__1::allocator<ch", "std::__1::basic_string<char, std::__1::char_traits<char>, std::__1::allocator<ch", "google::protobuf::internal::InlineGreedyStringParser"], "jobType": "libpng-proto_libfuzzer_msan", "isClosed": false, "isFixed": "", "isReproducible": true, "isSecurity": true, "isImpactSet": null, "impacts": {"extendedStable": null, "stable": null, "beta": null, "head": null}, "regressionRange": "", "fixedRange": "", "groupId": 0, "projectName": "test-project", "platform": "linux", "issueId": 0, "showImpacts": false, "impactsProduction": false, "timestamp": 1638431811.290425}, {"id": 85642, "crashType": "Use-of-uninitialized-value", "crashStateLines": ["void edge_filtering_luma_internal<unsigned short>", "thread_task_deblock_CTBRow::work", "worker_thread"], "jobType": "libheif_honggfuzz_msan", "isClosed": false, "isFixed": "", "isReproducible": true, "isSecurity": true, "isImpactSet": null, "impacts": {"extendedStable": null, "stable": null, "beta": null, "head": null}, "regressionRange": "", "fixedRange": "", "groupId": 45562, "projectName": "test-project", "platform": "linux", "issueId": 0, "showImpacts": false, "impactsProduction": false, "timestamp": 1638431787.450892}, {"id": 85641, "crashType": "Use-of-uninitialized-value", "crashStateLines": ["spng_read_fuzzer.c"], "jobType": "libspng_honggfuzz_msan", "isClosed": false, "isFixed": false, "isReproducible": false, "isSecurity": true, "isImpactSet": null, "impacts": {"extendedStable": null, "stable": null, "beta": null, "head": null}, "regressionRange": "", "fixedRange": "", "groupId": 0, "projectName": "test-project", "platform": "linux", "issueId": 0, "showImpacts": false, "impactsProduction": false, "timestamp": 1638431638.019589}, {"id": 83870, "crashType": "Direct-leak", "crashStateLines": ["ps_track_fill", "ps_pkt_parse_system", "Demux"], "jobType": "vlc_libfuzzer_asan", "isClosed": false, "isFixed": "", "isReproducible": true, "isSecurity": false, "isImpactSet": false, "impacts": {"extendedStable": null, "stable": null, "beta": null, "head": null}, "regressionRange": "", "fixedRange": "", "groupId": 0, "projectName": "test-project", "platform": "linux", "issueId": 0, "showImpacts": false, "impactsProduction": false, "timestamp": 1638419371.604951}, {"id": 82982, "crashType": "Out-of-memory", "crashStateLines": ["spectre_read_fuzzer"], "jobType": "libspectre_libfuzzer_asan", "isClosed": false, "isFixed": "", "isReproducible": true, "isSecurity": false, "isImpactSet": false, "impacts": {"extendedStable": null, "stable": null, "beta": null, "head": null}, "regressionRange": "", "fixedRange": "", "groupId": 0, "projectName": "test-project", "platform": "linux", "issueId": 0, "showImpacts": false, "impactsProduction": false, "timestamp": 1638410551.679276}], "page": 5, "pageSize": 20, "totalItems": 180, "totalPages": 9}